G04 Layer_Physical_Order=2*
G04 Layer_Color=16711680*
%FSAX24Y24*%
%MOIN*%
G70*
G01*
G75*
%ADD31C,0.0200*%
%ADD32C,0.0080*%
%ADD36C,0.0500*%
%ADD39R,0.0600X0.0550*%
%ADD42C,0.2500*%
%ADD43C,0.0787*%
%ADD44R,0.0700X0.0700*%
%ADD45C,0.0700*%
%ADD46O,0.0709X0.0984*%
%ADD47R,0.0600X0.0600*%
%ADD48C,0.0600*%
%ADD49C,0.0492*%
%ADD50O,0.1535X0.0551*%
%ADD51C,0.0236*%
%ADD52R,0.1181X0.0787*%
G36*
X026181Y024606D02*
Y018885D01*
X026133Y018851D01*
X025256D01*
Y018943D01*
X025243Y019005D01*
X025208Y019058D01*
X024241Y020025D01*
Y020058D01*
X024228Y020120D01*
X024193Y020173D01*
X024112Y020254D01*
X024110Y020262D01*
X024106Y020269D01*
Y020741D01*
X024505Y021141D01*
X024613Y021127D01*
X024721Y021141D01*
X024821Y021183D01*
X024908Y021249D01*
X024974Y021336D01*
X025016Y021437D01*
X025030Y021545D01*
Y021820D01*
X025016Y021928D01*
X024974Y022029D01*
X024908Y022116D01*
X024821Y022182D01*
X024721Y022224D01*
X024613Y022238D01*
X024504Y022224D01*
X024404Y022182D01*
X024317Y022116D01*
X024251Y022029D01*
X024209Y021928D01*
X024195Y021820D01*
Y021545D01*
X024209Y021437D01*
X024247Y021344D01*
X023827Y020924D01*
X023792Y020871D01*
X023779Y020809D01*
Y020269D01*
X023775Y020262D01*
X023761Y020193D01*
X023775Y020123D01*
X023814Y020064D01*
X023873Y020025D01*
X023881Y020023D01*
X023914Y019990D01*
Y019958D01*
X023927Y019895D01*
X023962Y019842D01*
X024916Y018888D01*
X024909Y018833D01*
X024906Y018832D01*
X024887Y018786D01*
Y017999D01*
X024906Y017953D01*
X024952Y017934D01*
X026133D01*
X026148Y017923D01*
Y017895D01*
X026102Y017851D01*
X024952D01*
X024906Y017832D01*
X024887Y017786D01*
Y017493D01*
X024853Y017487D01*
X024820Y017465D01*
X024724Y017368D01*
X024693Y017374D01*
X024623Y017360D01*
X024564Y017321D01*
X024525Y017262D01*
X024511Y017193D01*
X024525Y017123D01*
X024564Y017064D01*
X024623Y017025D01*
X024693Y017011D01*
X024762Y017025D01*
X024821Y017064D01*
X024837Y017088D01*
X024887Y017073D01*
Y016999D01*
X024906Y016953D01*
X024952Y016934D01*
X026133D01*
X026148Y016923D01*
Y016895D01*
X026102Y016851D01*
X024952D01*
X024906Y016832D01*
X024887Y016786D01*
Y016494D01*
X024785D01*
X024420Y016859D01*
X024421Y016864D01*
X024460Y016923D01*
X024474Y016993D01*
X024460Y017062D01*
X024421Y017121D01*
X024362Y017160D01*
X024293Y017174D01*
X024223Y017160D01*
X024164Y017121D01*
X024125Y017062D01*
X024111Y016993D01*
X024125Y016923D01*
X024164Y016864D01*
X024191Y016846D01*
Y016843D01*
X024198Y016803D01*
X024220Y016770D01*
X024670Y016320D01*
X024704Y016298D01*
X024743Y016291D01*
X024887D01*
Y015999D01*
X024906Y015953D01*
X024945Y015937D01*
X024948Y015907D01*
X024945Y015887D01*
X024913Y015880D01*
X024880Y015858D01*
X024858Y015825D01*
X024850Y015786D01*
Y015443D01*
X025543D01*
Y015393D01*
X025593D01*
Y014897D01*
X026133D01*
X026181Y014855D01*
Y011614D01*
X024606Y010039D01*
X011811D01*
X010039Y011811D01*
Y024409D01*
X011811Y026181D01*
X024606D01*
X026181Y024606D01*
D02*
G37*
%LPC*%
G36*
X010928Y019644D02*
X010510D01*
X010412Y019631D01*
X010321Y019594D01*
X010243Y019533D01*
X010182Y019455D01*
X010144Y019364D01*
X010141Y019341D01*
X010928D01*
Y019644D01*
D02*
G37*
G36*
X011495D02*
X011078D01*
Y019341D01*
X011864D01*
X011861Y019364D01*
X011823Y019455D01*
X011763Y019533D01*
X011684Y019594D01*
X011593Y019631D01*
X011495Y019644D01*
D02*
G37*
G36*
X010830Y019998D02*
X010566D01*
Y019733D01*
X010581Y019735D01*
X010665Y019770D01*
X010738Y019826D01*
X010793Y019898D01*
X010828Y019982D01*
X010830Y019998D01*
D02*
G37*
G36*
X010416D02*
X010152D01*
X010154Y019982D01*
X010188Y019898D01*
X010244Y019826D01*
X010316Y019770D01*
X010400Y019735D01*
X010416Y019733D01*
Y019998D01*
D02*
G37*
G36*
X010928Y019191D02*
X010141D01*
X010144Y019167D01*
X010182Y019076D01*
X010243Y018998D01*
X010321Y018937D01*
X010412Y018900D01*
X010510Y018887D01*
X010928D01*
Y019191D01*
D02*
G37*
G36*
X018195Y020771D02*
X018126Y020758D01*
X018067Y020718D01*
X018027Y020659D01*
X018014Y020590D01*
X018027Y020520D01*
X018067Y020461D01*
X018126Y020422D01*
X018195Y020408D01*
X018265Y020422D01*
X018324Y020461D01*
X018341Y020488D01*
X018503D01*
X019441Y019550D01*
Y019043D01*
X019448Y019003D01*
X019470Y018970D01*
X019941Y018500D01*
Y018379D01*
X019891Y018362D01*
X019859Y018403D01*
X019774Y018468D01*
X019674Y018510D01*
X019567Y018524D01*
X019460Y018510D01*
X019360Y018468D01*
X019275Y018403D01*
X019209Y018317D01*
X019167Y018217D01*
X019167Y018212D01*
X018967D01*
X018966Y018217D01*
X018925Y018317D01*
X018859Y018403D01*
X018774Y018468D01*
X018674Y018510D01*
X018567Y018524D01*
X018460Y018510D01*
X018360Y018468D01*
X018275Y018403D01*
X018209Y018317D01*
X018194Y018282D01*
X018144Y018292D01*
Y018543D01*
X018139Y018571D01*
X018160Y018602D01*
X018175Y018614D01*
X018193Y018611D01*
X018262Y018625D01*
X018321Y018664D01*
X018339Y018691D01*
X018917D01*
X018956Y018698D01*
X018989Y018720D01*
X019086Y018817D01*
X019117Y018811D01*
X019186Y018825D01*
X019245Y018864D01*
X019285Y018923D01*
X019299Y018993D01*
X019285Y019062D01*
X019245Y019121D01*
X019186Y019160D01*
X019117Y019174D01*
X019047Y019160D01*
X018989Y019121D01*
X018949Y019062D01*
X018935Y018993D01*
X018942Y018961D01*
X018875Y018894D01*
X018339D01*
X018321Y018921D01*
X018262Y018960D01*
X018193Y018974D01*
X018123Y018960D01*
X018064Y018921D01*
X018044Y018892D01*
X017994Y018907D01*
Y019496D01*
X018021Y019514D01*
X018060Y019573D01*
X018074Y019643D01*
X018060Y019712D01*
X018021Y019771D01*
X017962Y019810D01*
X017893Y019824D01*
X017823Y019810D01*
X017764Y019771D01*
X017725Y019712D01*
X017711Y019643D01*
X017725Y019573D01*
X017764Y019514D01*
X017791Y019496D01*
Y018693D01*
X017798Y018654D01*
X017820Y018620D01*
X017941Y018500D01*
Y018379D01*
X017891Y018362D01*
X017859Y018403D01*
X017774Y018468D01*
X017674Y018510D01*
X017567Y018524D01*
X017460Y018510D01*
X017360Y018468D01*
X017275Y018403D01*
X017209Y018317D01*
X017167Y018217D01*
X017153Y018110D01*
X017167Y018003D01*
X017209Y017903D01*
X017275Y017818D01*
X017360Y017752D01*
X017460Y017711D01*
X017567Y017697D01*
X017674Y017711D01*
X017774Y017752D01*
X017859Y017818D01*
X017891Y017859D01*
X017941Y017842D01*
Y017685D01*
X016660Y016404D01*
X016638Y016371D01*
X016630Y016332D01*
Y015959D01*
X016629Y015959D01*
X016580Y015951D01*
X016565Y015975D01*
X015028Y017511D01*
X015034Y017543D01*
X015020Y017612D01*
X014982Y017669D01*
X014963Y017714D01*
X014982Y017760D01*
Y018460D01*
X014963Y018506D01*
X014917Y018525D01*
X014217D01*
X014171Y018506D01*
X014152Y018460D01*
Y017760D01*
X014171Y017714D01*
X014217Y017695D01*
X014680D01*
X014707Y017645D01*
X014685Y017612D01*
X014671Y017543D01*
X014685Y017473D01*
X014724Y017414D01*
X014783Y017375D01*
X014853Y017361D01*
X014884Y017367D01*
X016391Y015860D01*
Y014809D01*
X016364Y014791D01*
X016325Y014732D01*
X016311Y014663D01*
X016325Y014593D01*
X016364Y014534D01*
X016423Y014495D01*
X016493Y014481D01*
X016562Y014495D01*
X016580Y014507D01*
X016630Y014480D01*
Y012978D01*
X016604Y012961D01*
X016565Y012902D01*
X016551Y012832D01*
X016565Y012763D01*
X016604Y012704D01*
X016663Y012665D01*
X016732Y012651D01*
X016802Y012665D01*
X016861Y012704D01*
X016900Y012763D01*
X016914Y012832D01*
X016900Y012902D01*
X016861Y012961D01*
X016834Y012978D01*
Y016290D01*
X018115Y017570D01*
X018137Y017603D01*
X018144Y017643D01*
Y017928D01*
X018194Y017938D01*
X018209Y017903D01*
X018275Y017818D01*
X018360Y017752D01*
X018460Y017711D01*
X018567Y017697D01*
X018674Y017711D01*
X018774Y017752D01*
X018859Y017818D01*
X018925Y017903D01*
X018966Y018003D01*
X018967Y018008D01*
X019167D01*
X019167Y018003D01*
X019209Y017903D01*
X019275Y017818D01*
X019360Y017752D01*
X019460Y017711D01*
X019567Y017697D01*
X019674Y017711D01*
X019774Y017752D01*
X019859Y017818D01*
X019891Y017859D01*
X019941Y017842D01*
Y017439D01*
X019914Y017421D01*
X019875Y017362D01*
X019861Y017293D01*
X019875Y017223D01*
X019914Y017164D01*
X019973Y017125D01*
X020043Y017111D01*
X020112Y017125D01*
X020171Y017164D01*
X020210Y017223D01*
X020224Y017293D01*
X020210Y017362D01*
X020171Y017421D01*
X020144Y017439D01*
Y017928D01*
X020194Y017938D01*
X020209Y017903D01*
X020275Y017818D01*
X020360Y017752D01*
X020460Y017711D01*
X020465Y017710D01*
Y013872D01*
X020464Y013871D01*
X020425Y013812D01*
X020411Y013743D01*
X020425Y013673D01*
X020464Y013614D01*
X020523Y013575D01*
X020593Y013561D01*
X020662Y013575D01*
X020721Y013614D01*
X020760Y013673D01*
X020774Y013743D01*
X020760Y013812D01*
X020721Y013871D01*
X020669Y013906D01*
Y017710D01*
X020674Y017711D01*
X020774Y017752D01*
X020859Y017818D01*
X020925Y017903D01*
X020966Y018003D01*
X020980Y018110D01*
X020966Y018217D01*
X020925Y018317D01*
X020859Y018403D01*
X020774Y018468D01*
X020674Y018510D01*
X020567Y018524D01*
X020460Y018510D01*
X020360Y018468D01*
X020275Y018403D01*
X020209Y018317D01*
X020194Y018282D01*
X020144Y018292D01*
Y018543D01*
X020137Y018582D01*
X020115Y018615D01*
X019644Y019085D01*
Y019593D01*
X019637Y019632D01*
X019615Y019665D01*
X018617Y020662D01*
X018584Y020684D01*
X018545Y020692D01*
X018341D01*
X018324Y020718D01*
X018265Y020758D01*
X018195Y020771D01*
D02*
G37*
G36*
X013143Y019916D02*
X013049Y019903D01*
X012961Y019867D01*
X012886Y019809D01*
X012828Y019734D01*
X012792Y019647D01*
X012779Y019553D01*
X012792Y019459D01*
X012828Y019371D01*
X012886Y019296D01*
X012961Y019238D01*
X013049Y019202D01*
X013143Y019189D01*
X013237Y019202D01*
X013324Y019238D01*
X013399Y019296D01*
X013457Y019371D01*
X013493Y019459D01*
X013506Y019553D01*
X013493Y019647D01*
X013457Y019734D01*
X013399Y019809D01*
X013324Y019867D01*
X013237Y019903D01*
X013143Y019916D01*
D02*
G37*
G36*
X011864Y019191D02*
X011078D01*
Y018887D01*
X011495D01*
X011593Y018900D01*
X011684Y018937D01*
X011763Y018998D01*
X011823Y019076D01*
X011861Y019167D01*
X011864Y019191D01*
D02*
G37*
G36*
X011514Y021326D02*
X011434Y021316D01*
X011360Y021285D01*
X011296Y021236D01*
X011247Y021172D01*
X011216Y021097D01*
X011206Y021017D01*
X011216Y020938D01*
X011247Y020863D01*
X011296Y020799D01*
X011360Y020750D01*
X011410Y020730D01*
Y020675D01*
X011360Y020655D01*
X011296Y020606D01*
X011247Y020542D01*
X011216Y020467D01*
X011206Y020388D01*
X011216Y020308D01*
X011247Y020233D01*
X011296Y020169D01*
X011360Y020120D01*
X011434Y020089D01*
X011514Y020079D01*
X011594Y020089D01*
X011669Y020120D01*
X011733Y020169D01*
X011782Y020233D01*
X011813Y020308D01*
X011823Y020388D01*
X011813Y020467D01*
X011782Y020542D01*
X011733Y020606D01*
X011669Y020655D01*
X011619Y020675D01*
Y020730D01*
X011669Y020750D01*
X011733Y020799D01*
X011782Y020863D01*
X011813Y020938D01*
X011823Y021017D01*
X011813Y021097D01*
X011782Y021172D01*
X011733Y021236D01*
X011669Y021285D01*
X011594Y021316D01*
X011514Y021326D01*
D02*
G37*
G36*
X018193Y021574D02*
X018123Y021560D01*
X018064Y021521D01*
X018025Y021462D01*
X018014Y021408D01*
X017724Y021118D01*
X017693Y021124D01*
X017623Y021110D01*
X017564Y021071D01*
X017525Y021012D01*
X017511Y020943D01*
X017525Y020873D01*
X017564Y020814D01*
X017623Y020775D01*
X017693Y020761D01*
X017762Y020775D01*
X017821Y020814D01*
X017860Y020873D01*
X017874Y020943D01*
X017868Y020974D01*
X018121Y021226D01*
X018123Y021225D01*
X018193Y021211D01*
X018262Y021225D01*
X018321Y021264D01*
X018360Y021323D01*
X018374Y021393D01*
X018360Y021462D01*
X018321Y021521D01*
X018262Y021560D01*
X018193Y021574D01*
D02*
G37*
G36*
X023613Y022238D02*
X023504Y022224D01*
X023404Y022182D01*
X023317Y022116D01*
X023251Y022029D01*
X023209Y021928D01*
X023195Y021820D01*
Y021545D01*
X023209Y021437D01*
X023251Y021336D01*
X023317Y021249D01*
X023404Y021183D01*
X023504Y021141D01*
X023613Y021127D01*
X023721Y021141D01*
X023821Y021183D01*
X023908Y021249D01*
X023974Y021336D01*
X024016Y021437D01*
X024030Y021545D01*
Y021820D01*
X024016Y021928D01*
X023974Y022029D01*
X023908Y022116D01*
X023821Y022182D01*
X023721Y022224D01*
X023613Y022238D01*
D02*
G37*
G36*
X025688Y022269D02*
Y021758D01*
X026071D01*
Y021820D01*
X026055Y021939D01*
X026009Y022049D01*
X025937Y022144D01*
X025842Y022217D01*
X025731Y022263D01*
X025688Y022269D01*
D02*
G37*
G36*
X025538D02*
X025494Y022263D01*
X025383Y022217D01*
X025288Y022144D01*
X025216Y022049D01*
X025170Y021939D01*
X025154Y021820D01*
Y021758D01*
X025538D01*
Y022269D01*
D02*
G37*
G36*
X013976Y021308D02*
X013907Y021294D01*
X013848Y021255D01*
X013809Y021196D01*
X013795Y021126D01*
X013809Y021057D01*
X013848Y020998D01*
X013907Y020959D01*
X013976Y020945D01*
X014008Y020951D01*
X014038Y020920D01*
X014071Y020898D01*
X014110Y020891D01*
X014114Y020841D01*
X014096Y020837D01*
X014037Y020798D01*
X014020Y020771D01*
X013809D01*
X013770Y020763D01*
X013737Y020741D01*
X013704Y020708D01*
X013673Y020714D01*
X013603Y020700D01*
X013544Y020661D01*
X013541Y020656D01*
X013534Y020655D01*
X013486Y020664D01*
X013457Y020734D01*
X013399Y020809D01*
X013324Y020867D01*
X013237Y020903D01*
X013143Y020916D01*
X013049Y020903D01*
X012961Y020867D01*
X012886Y020809D01*
X012828Y020734D01*
X012792Y020647D01*
X012779Y020553D01*
X012792Y020459D01*
X012828Y020371D01*
X012886Y020296D01*
X012961Y020238D01*
X013049Y020202D01*
X013143Y020189D01*
X013237Y020202D01*
X013324Y020238D01*
X013399Y020296D01*
X013457Y020371D01*
X013476Y020416D01*
X013532Y020422D01*
X013544Y020404D01*
X013603Y020365D01*
X013673Y020351D01*
X013742Y020365D01*
X013801Y020404D01*
X013840Y020463D01*
X013854Y020533D01*
X013898Y020567D01*
X014020D01*
X014037Y020541D01*
X014096Y020502D01*
X014166Y020488D01*
X014235Y020502D01*
X014294Y020541D01*
X014334Y020600D01*
X014347Y020669D01*
X014334Y020736D01*
X014336Y020739D01*
X014381Y020760D01*
X014541Y020600D01*
Y019839D01*
X014514Y019821D01*
X014475Y019762D01*
X014461Y019693D01*
X014475Y019623D01*
X014514Y019564D01*
X014573Y019525D01*
X014643Y019511D01*
X014712Y019525D01*
X014771Y019564D01*
X014810Y019623D01*
X014824Y019693D01*
X014810Y019762D01*
X014771Y019821D01*
X014744Y019839D01*
Y020643D01*
X014737Y020682D01*
X014715Y020715D01*
X014365Y021065D01*
X014332Y021087D01*
X014293Y021094D01*
X014203D01*
X014158Y021126D01*
X014144Y021196D01*
X014105Y021255D01*
X014046Y021294D01*
X013976Y021308D01*
D02*
G37*
G36*
X010491Y021641D02*
X010411Y021631D01*
X010336Y021600D01*
X010272Y021551D01*
X010223Y021487D01*
X010193Y021412D01*
X010182Y021332D01*
X010193Y021253D01*
X010223Y021178D01*
X010272Y021114D01*
X010336Y021065D01*
X010386Y021045D01*
Y020990D01*
X010336Y020970D01*
X010272Y020921D01*
X010223Y020857D01*
X010193Y020782D01*
X010182Y020703D01*
X010193Y020623D01*
X010223Y020548D01*
X010272Y020484D01*
X010335Y020437D01*
X010339Y020410D01*
Y020384D01*
X010316Y020375D01*
X010244Y020319D01*
X010188Y020247D01*
X010154Y020163D01*
X010152Y020148D01*
X010491D01*
X010830D01*
X010828Y020163D01*
X010793Y020247D01*
X010738Y020319D01*
X010665Y020375D01*
X010643Y020384D01*
Y020410D01*
X010647Y020437D01*
X010709Y020484D01*
X010758Y020548D01*
X010789Y020623D01*
X010799Y020703D01*
X010789Y020782D01*
X010758Y020857D01*
X010709Y020921D01*
X010645Y020970D01*
X010595Y020990D01*
Y021045D01*
X010645Y021065D01*
X010709Y021114D01*
X010758Y021178D01*
X010789Y021253D01*
X010799Y021332D01*
X010789Y021412D01*
X010758Y021487D01*
X010709Y021551D01*
X010645Y021600D01*
X010571Y021631D01*
X010491Y021641D01*
D02*
G37*
G36*
X026071Y021608D02*
X025688D01*
Y021096D01*
X025731Y021102D01*
X025842Y021148D01*
X025937Y021221D01*
X026009Y021316D01*
X026055Y021426D01*
X026071Y021545D01*
Y021608D01*
D02*
G37*
G36*
X025538D02*
X025154D01*
Y021545D01*
X025170Y021426D01*
X025216Y021316D01*
X025288Y021221D01*
X025383Y021148D01*
X025494Y021102D01*
X025538Y021096D01*
Y021608D01*
D02*
G37*
G36*
X020843Y020856D02*
X020780Y020843D01*
X020727Y020808D01*
X020692Y020755D01*
X020679Y020693D01*
X020692Y020630D01*
X020727Y020577D01*
X020983Y020321D01*
X020995Y020263D01*
X021034Y020204D01*
X021093Y020165D01*
X021151Y020153D01*
X021229Y020075D01*
Y019210D01*
X021127Y019108D01*
X021092Y019055D01*
X021079Y018993D01*
Y018799D01*
X021023Y018788D01*
X020964Y018749D01*
X020925Y018690D01*
X020911Y018620D01*
X020925Y018551D01*
X020964Y018492D01*
X021023Y018452D01*
X021093Y018439D01*
X021162Y018452D01*
X021169Y018457D01*
X021243D01*
X021271Y018463D01*
X021292Y018416D01*
X021275Y018403D01*
X021209Y018317D01*
X021167Y018217D01*
X021153Y018110D01*
X021167Y018003D01*
X021209Y017903D01*
X021275Y017818D01*
X021360Y017752D01*
X021460Y017711D01*
X021465Y017710D01*
Y013955D01*
X021414Y013921D01*
X021375Y013862D01*
X021361Y013793D01*
X021375Y013723D01*
X021414Y013664D01*
X021473Y013625D01*
X021543Y013611D01*
X021612Y013625D01*
X021671Y013664D01*
X021710Y013723D01*
X021724Y013793D01*
X021710Y013862D01*
X021671Y013921D01*
X021669Y013922D01*
Y017710D01*
X021674Y017711D01*
X021774Y017752D01*
X021859Y017818D01*
X021925Y017903D01*
X021966Y018003D01*
X021980Y018110D01*
X021966Y018217D01*
X021925Y018317D01*
X021859Y018403D01*
X021774Y018468D01*
X021674Y018510D01*
X021567Y018524D01*
X021460Y018510D01*
X021406Y018488D01*
X021373Y018528D01*
X021393Y018558D01*
X021406Y018620D01*
Y018925D01*
X021508Y019027D01*
X021543Y019080D01*
X021556Y019143D01*
Y020143D01*
X021543Y020205D01*
X021508Y020258D01*
X020958Y020808D01*
X020905Y020843D01*
X020843Y020856D01*
D02*
G37*
G36*
X018093Y015574D02*
X018023Y015560D01*
X017964Y015521D01*
X017925Y015462D01*
X017911Y015393D01*
X017925Y015323D01*
X017964Y015264D01*
X017991Y015246D01*
Y013139D01*
X017964Y013121D01*
X017948Y013096D01*
X017887D01*
X017871Y013121D01*
X017844Y013139D01*
Y014946D01*
X017871Y014964D01*
X017910Y015023D01*
X017924Y015093D01*
X017910Y015162D01*
X017871Y015221D01*
X017812Y015260D01*
X017743Y015274D01*
X017673Y015260D01*
X017614Y015221D01*
X017575Y015162D01*
X017561Y015093D01*
X017575Y015023D01*
X017614Y014964D01*
X017641Y014946D01*
Y014057D01*
X017591Y014042D01*
X017571Y014071D01*
X017544Y014089D01*
Y014943D01*
X017537Y014982D01*
X017515Y015015D01*
X017418Y015111D01*
X017424Y015143D01*
X017410Y015212D01*
X017371Y015271D01*
X017312Y015310D01*
X017243Y015324D01*
X017173Y015310D01*
X017114Y015271D01*
X017075Y015212D01*
X017061Y015143D01*
X017075Y015073D01*
X017114Y015014D01*
X017173Y014975D01*
X017243Y014961D01*
X017274Y014967D01*
X017341Y014900D01*
Y014089D01*
X017314Y014071D01*
X017275Y014012D01*
X017261Y013943D01*
X017275Y013873D01*
X017314Y013814D01*
X017373Y013775D01*
X017443Y013761D01*
X017512Y013775D01*
X017571Y013814D01*
X017591Y013843D01*
X017641Y013828D01*
Y013139D01*
X017614Y013121D01*
X017575Y013062D01*
X017561Y012993D01*
X017575Y012923D01*
X017614Y012864D01*
X017673Y012825D01*
X017743Y012811D01*
X017812Y012825D01*
X017871Y012864D01*
X017887Y012889D01*
X017948D01*
X017964Y012864D01*
X018023Y012825D01*
X018093Y012811D01*
X018162Y012825D01*
X018221Y012864D01*
X018260Y012923D01*
X018274Y012993D01*
X018260Y013062D01*
X018221Y013121D01*
X018194Y013139D01*
Y015246D01*
X018221Y015264D01*
X018260Y015323D01*
X018274Y015393D01*
X018260Y015462D01*
X018221Y015521D01*
X018162Y015560D01*
X018093Y015574D01*
D02*
G37*
G36*
X025493Y015343D02*
X024850D01*
Y014999D01*
X024858Y014960D01*
X024880Y014927D01*
X024913Y014905D01*
X024952Y014897D01*
X025493D01*
Y015343D01*
D02*
G37*
G36*
X024503Y015094D02*
X024433Y015080D01*
X024374Y015041D01*
X024335Y014982D01*
X024321Y014913D01*
X024335Y014843D01*
X024374Y014784D01*
X024433Y014745D01*
X024503Y014731D01*
X024518Y014734D01*
X024640Y014612D01*
X024661Y014599D01*
Y014119D01*
X024634Y014101D01*
X024595Y014042D01*
X024581Y013973D01*
X024595Y013903D01*
X024634Y013844D01*
X024693Y013805D01*
X024763Y013791D01*
X024832Y013805D01*
X024891Y013844D01*
X024930Y013903D01*
X024944Y013973D01*
X024930Y014042D01*
X024891Y014101D01*
X024864Y014119D01*
Y014653D01*
X024857Y014692D01*
X024835Y014725D01*
X024803Y014757D01*
X024770Y014779D01*
X024760Y014780D01*
X024675Y014866D01*
X024684Y014913D01*
X024670Y014982D01*
X024631Y015041D01*
X024572Y015080D01*
X024503Y015094D01*
D02*
G37*
G36*
X024288Y013356D02*
Y012083D01*
X025561D01*
X025550Y012220D01*
X025501Y012426D01*
X025419Y012623D01*
X025308Y012804D01*
X025170Y012965D01*
X025009Y013103D01*
X024827Y013214D01*
X024631Y013296D01*
X024424Y013345D01*
X024288Y013356D01*
D02*
G37*
G36*
X025561Y011933D02*
X024288D01*
Y010660D01*
X024424Y010670D01*
X024631Y010720D01*
X024827Y010801D01*
X025009Y010912D01*
X025170Y011050D01*
X025308Y011212D01*
X025419Y011393D01*
X025501Y011589D01*
X025550Y011796D01*
X025561Y011933D01*
D02*
G37*
G36*
X024138D02*
X022864D01*
X022875Y011796D01*
X022925Y011589D01*
X023006Y011393D01*
X023117Y011212D01*
X023255Y011050D01*
X023417Y010912D01*
X023598Y010801D01*
X023794Y010720D01*
X024001Y010670D01*
X024138Y010660D01*
Y011933D01*
D02*
G37*
G36*
Y013356D02*
X024001Y013345D01*
X023794Y013296D01*
X023598Y013214D01*
X023417Y013103D01*
X023255Y012965D01*
X023117Y012804D01*
X023006Y012623D01*
X022925Y012426D01*
X022875Y012220D01*
X022864Y012083D01*
X024138D01*
Y013356D01*
D02*
G37*
G36*
X012008Y013322D02*
X011802Y013306D01*
X011602Y013258D01*
X011411Y013179D01*
X011236Y013071D01*
X011079Y012937D01*
X010945Y012780D01*
X010837Y012604D01*
X010758Y012414D01*
X010710Y012213D01*
X010694Y012008D01*
X010710Y011802D01*
X010758Y011602D01*
X010837Y011411D01*
X010945Y011236D01*
X011079Y011079D01*
X011236Y010945D01*
X011411Y010837D01*
X011602Y010758D01*
X011802Y010710D01*
X012008Y010694D01*
X012213Y010710D01*
X012414Y010758D01*
X012604Y010837D01*
X012780Y010945D01*
X012937Y011079D01*
X013071Y011236D01*
X013179Y011411D01*
X013258Y011602D01*
X013306Y011802D01*
X013322Y012008D01*
X013306Y012213D01*
X013258Y012414D01*
X013179Y012604D01*
X013071Y012780D01*
X012937Y012937D01*
X012780Y013071D01*
X012604Y013179D01*
X012414Y013258D01*
X012213Y013306D01*
X012008Y013322D01*
D02*
G37*
G36*
X013544Y018478D02*
X013218D01*
Y018151D01*
X013443D01*
X013482Y018158D01*
X013515Y018180D01*
X013537Y018213D01*
X013544Y018253D01*
Y018478D01*
D02*
G37*
G36*
X013068D02*
X012741D01*
Y018253D01*
X012748Y018213D01*
X012770Y018180D01*
X012803Y018158D01*
X012843Y018151D01*
X013068D01*
Y018478D01*
D02*
G37*
G36*
X013443Y018954D02*
X013218D01*
Y018628D01*
X013544D01*
Y018853D01*
X013537Y018892D01*
X013515Y018925D01*
X013482Y018947D01*
X013443Y018954D01*
D02*
G37*
G36*
X013068D02*
X012843D01*
X012803Y018947D01*
X012770Y018925D01*
X012748Y018892D01*
X012741Y018853D01*
Y018628D01*
X013068D01*
Y018954D01*
D02*
G37*
G36*
X023853Y016364D02*
X023783Y016350D01*
X023761Y016336D01*
X023639D01*
X023632Y016340D01*
X023563Y016354D01*
X023493Y016340D01*
X023434Y016301D01*
X023395Y016242D01*
X023381Y016173D01*
X023395Y016103D01*
X023434Y016044D01*
X023493Y016005D01*
X023543Y015995D01*
X023563Y015944D01*
X022127Y014508D01*
X022092Y014455D01*
X022079Y014393D01*
Y014107D01*
X022043D01*
X021997Y014088D01*
X021978Y014043D01*
Y013493D01*
X021997Y013447D01*
X022043Y013428D01*
X022643D01*
X022688Y013447D01*
X022707Y013493D01*
Y014043D01*
X022688Y014088D01*
X022643Y014107D01*
X022406D01*
Y014325D01*
X023968Y015887D01*
X024003Y015940D01*
X024016Y016003D01*
Y016106D01*
X024020Y016113D01*
X024034Y016183D01*
X024020Y016252D01*
X023981Y016311D01*
X023922Y016350D01*
X023853Y016364D01*
D02*
G37*
G36*
X011851Y015508D02*
X011438D01*
Y015094D01*
X011491Y015102D01*
X011611Y015151D01*
X011715Y015230D01*
X011794Y015334D01*
X011844Y015454D01*
X011851Y015508D01*
D02*
G37*
G36*
X011288D02*
X010874D01*
X010882Y015454D01*
X010931Y015334D01*
X011010Y015230D01*
X011114Y015151D01*
X011234Y015102D01*
X011288Y015094D01*
Y015508D01*
D02*
G37*
G36*
X011438Y016071D02*
Y015658D01*
X011851D01*
X011844Y015711D01*
X011794Y015832D01*
X011715Y015935D01*
X011611Y016014D01*
X011491Y016064D01*
X011438Y016071D01*
D02*
G37*
G36*
X011288D02*
X011234Y016064D01*
X011114Y016014D01*
X011010Y015935D01*
X010931Y015832D01*
X010882Y015711D01*
X010874Y015658D01*
X011288D01*
Y016071D01*
D02*
G37*
G36*
X010928Y022065D02*
X010141D01*
X010144Y022041D01*
X010182Y021950D01*
X010243Y021872D01*
X010321Y021811D01*
X010412Y021774D01*
X010510Y021761D01*
X010928D01*
Y022065D01*
D02*
G37*
G36*
X024138Y025561D02*
X024001Y025550D01*
X023794Y025501D01*
X023598Y025419D01*
X023417Y025308D01*
X023255Y025170D01*
X023117Y025009D01*
X023006Y024827D01*
X022925Y024631D01*
X022875Y024424D01*
X022864Y024288D01*
X024138D01*
Y025561D01*
D02*
G37*
G36*
X012083D02*
Y024288D01*
X013356D01*
X013345Y024424D01*
X013296Y024631D01*
X013214Y024827D01*
X013103Y025009D01*
X012965Y025170D01*
X012804Y025308D01*
X012623Y025419D01*
X012426Y025501D01*
X012220Y025550D01*
X012083Y025561D01*
D02*
G37*
G36*
X019972Y024925D02*
X019589D01*
Y024862D01*
X019605Y024744D01*
X019650Y024633D01*
X019723Y024538D01*
X019818Y024465D01*
X019929Y024420D01*
X019972Y024414D01*
Y024925D01*
D02*
G37*
G36*
X024288Y025561D02*
Y024288D01*
X025561D01*
X025550Y024424D01*
X025501Y024631D01*
X025419Y024827D01*
X025308Y025009D01*
X025170Y025170D01*
X025009Y025308D01*
X024827Y025419D01*
X024631Y025501D01*
X024424Y025550D01*
X024288Y025561D01*
D02*
G37*
G36*
X011933D02*
X011796Y025550D01*
X011589Y025501D01*
X011393Y025419D01*
X011212Y025308D01*
X011050Y025170D01*
X010912Y025009D01*
X010801Y024827D01*
X010720Y024631D01*
X010670Y024424D01*
X010660Y024288D01*
X011933D01*
Y025561D01*
D02*
G37*
G36*
X015492Y023554D02*
X015449Y023549D01*
X015340Y023503D01*
X015246Y023431D01*
X015174Y023337D01*
X015129Y023228D01*
X015123Y023185D01*
X015492D01*
Y023554D01*
D02*
G37*
G36*
X021642D02*
Y023185D01*
X022011D01*
X022005Y023228D01*
X021960Y023337D01*
X021888Y023431D01*
X021794Y023503D01*
X021684Y023549D01*
X021642Y023554D01*
D02*
G37*
G36*
X014917Y023525D02*
X014217D01*
X014171Y023506D01*
X014152Y023460D01*
Y023423D01*
X013960D01*
X013960Y023423D01*
X013879Y023412D01*
X013804Y023381D01*
X013739Y023331D01*
X012071Y021664D01*
X012022Y021599D01*
X011990Y021523D01*
X011980Y021443D01*
X011980Y021443D01*
Y018150D01*
X011224Y017394D01*
X011134Y017357D01*
X011039Y017284D01*
X010966Y017189D01*
X010920Y017079D01*
X010905Y016960D01*
X010920Y016842D01*
X010966Y016732D01*
X011039Y016637D01*
X011134Y016564D01*
X011244Y016518D01*
X011363Y016503D01*
X011481Y016518D01*
X011591Y016564D01*
X011686Y016637D01*
X011759Y016732D01*
X011805Y016842D01*
X011820Y016960D01*
X011805Y017079D01*
X011801Y017087D01*
X012514Y017799D01*
X012563Y017864D01*
X012595Y017940D01*
X012600Y017980D01*
X012605Y018020D01*
X012605Y018020D01*
Y021313D01*
X014090Y022798D01*
X014152D01*
Y022760D01*
X014171Y022714D01*
X014217Y022695D01*
X014917D01*
X014963Y022714D01*
X014982Y022760D01*
Y023460D01*
X014963Y023506D01*
X014917Y023525D01*
D02*
G37*
G36*
X015642Y023554D02*
Y023185D01*
X016011D01*
X016005Y023228D01*
X015960Y023337D01*
X015888Y023431D01*
X015794Y023503D01*
X015684Y023549D01*
X015642Y023554D01*
D02*
G37*
G36*
X022047Y025556D02*
X021939Y025541D01*
X021838Y025500D01*
X021752Y025433D01*
X021685Y025347D01*
X021644Y025246D01*
X021629Y025138D01*
Y024862D01*
X021644Y024754D01*
X021685Y024653D01*
X021752Y024567D01*
X021838Y024500D01*
X021939Y024459D01*
X022047Y024444D01*
X022155Y024459D01*
X022256Y024500D01*
X022343Y024567D01*
X022409Y024653D01*
X022451Y024754D01*
X022465Y024862D01*
Y025138D01*
X022451Y025246D01*
X022409Y025347D01*
X022343Y025433D01*
X022256Y025500D01*
X022155Y025541D01*
X022047Y025556D01*
D02*
G37*
G36*
X021047D02*
X020939Y025541D01*
X020838Y025500D01*
X020752Y025433D01*
X020685Y025347D01*
X020644Y025246D01*
X020629Y025138D01*
Y024862D01*
X020644Y024754D01*
X020685Y024653D01*
X020752Y024567D01*
X020838Y024500D01*
X020939Y024459D01*
X021047Y024444D01*
X021155Y024459D01*
X021256Y024500D01*
X021343Y024567D01*
X021409Y024653D01*
X021451Y024754D01*
X021465Y024862D01*
Y025138D01*
X021451Y025246D01*
X021409Y025347D01*
X021343Y025433D01*
X021256Y025500D01*
X021155Y025541D01*
X021047Y025556D01*
D02*
G37*
G36*
X020122Y025586D02*
Y025075D01*
X020505D01*
Y025138D01*
X020490Y025256D01*
X020444Y025367D01*
X020371Y025462D01*
X020276Y025535D01*
X020166Y025580D01*
X020122Y025586D01*
D02*
G37*
G36*
X019972D02*
X019929Y025580D01*
X019818Y025535D01*
X019723Y025462D01*
X019650Y025367D01*
X019605Y025256D01*
X019589Y025138D01*
Y025075D01*
X019972D01*
Y025586D01*
D02*
G37*
G36*
X018035Y025556D02*
X017927Y025541D01*
X017826Y025500D01*
X017740Y025433D01*
X017674Y025347D01*
X017632Y025246D01*
X017618Y025138D01*
Y024862D01*
X017632Y024754D01*
X017674Y024653D01*
X017740Y024567D01*
X017826Y024500D01*
X017927Y024459D01*
X018035Y024444D01*
X018144Y024459D01*
X018244Y024500D01*
X018331Y024567D01*
X018397Y024653D01*
X018439Y024754D01*
X018453Y024862D01*
Y025138D01*
X018439Y025246D01*
X018397Y025347D01*
X018331Y025433D01*
X018244Y025500D01*
X018144Y025541D01*
X018035Y025556D01*
D02*
G37*
G36*
X015035D02*
X014927Y025541D01*
X014826Y025500D01*
X014740Y025433D01*
X014674Y025347D01*
X014632Y025246D01*
X014618Y025138D01*
Y024862D01*
X014632Y024754D01*
X014674Y024653D01*
X014740Y024567D01*
X014826Y024500D01*
X014927Y024459D01*
X015035Y024444D01*
X015144Y024459D01*
X015244Y024500D01*
X015331Y024567D01*
X015397Y024653D01*
X015439Y024754D01*
X015453Y024862D01*
Y025138D01*
X015439Y025246D01*
X015397Y025347D01*
X015331Y025433D01*
X015244Y025500D01*
X015144Y025541D01*
X015035Y025556D01*
D02*
G37*
G36*
X020505Y024925D02*
X020122D01*
Y024414D01*
X020166Y024420D01*
X020276Y024465D01*
X020371Y024538D01*
X020444Y024633D01*
X020490Y024744D01*
X020505Y024862D01*
Y024925D01*
D02*
G37*
G36*
X017035Y025556D02*
X016927Y025541D01*
X016826Y025500D01*
X016740Y025433D01*
X016674Y025347D01*
X016632Y025246D01*
X016618Y025138D01*
Y024862D01*
X016632Y024754D01*
X016674Y024653D01*
X016740Y024567D01*
X016826Y024500D01*
X016927Y024459D01*
X017035Y024444D01*
X017144Y024459D01*
X017244Y024500D01*
X017331Y024567D01*
X017397Y024653D01*
X017439Y024754D01*
X017453Y024862D01*
Y025138D01*
X017439Y025246D01*
X017397Y025347D01*
X017331Y025433D01*
X017244Y025500D01*
X017144Y025541D01*
X017035Y025556D01*
D02*
G37*
G36*
X016035D02*
X015927Y025541D01*
X015826Y025500D01*
X015740Y025433D01*
X015674Y025347D01*
X015632Y025246D01*
X015618Y025138D01*
Y024862D01*
X015632Y024754D01*
X015674Y024653D01*
X015740Y024567D01*
X015826Y024500D01*
X015927Y024459D01*
X016035Y024444D01*
X016144Y024459D01*
X016244Y024500D01*
X016331Y024567D01*
X016397Y024653D01*
X016439Y024754D01*
X016453Y024862D01*
Y025138D01*
X016439Y025246D01*
X016397Y025347D01*
X016331Y025433D01*
X016244Y025500D01*
X016144Y025541D01*
X016035Y025556D01*
D02*
G37*
G36*
X022011Y023035D02*
X021642D01*
Y022666D01*
X021684Y022672D01*
X021794Y022717D01*
X021888Y022789D01*
X021960Y022883D01*
X022005Y022993D01*
X022011Y023035D01*
D02*
G37*
G36*
X021492D02*
X021123D01*
X021129Y022993D01*
X021174Y022883D01*
X021246Y022789D01*
X021340Y022717D01*
X021449Y022672D01*
X021492Y022666D01*
Y023035D01*
D02*
G37*
G36*
X016567Y023524D02*
X016460Y023510D01*
X016360Y023468D01*
X016275Y023403D01*
X016209Y023317D01*
X016167Y023217D01*
X016153Y023110D01*
X016167Y023003D01*
X016209Y022903D01*
X016275Y022818D01*
X016360Y022752D01*
X016460Y022711D01*
X016567Y022697D01*
X016674Y022711D01*
X016774Y022752D01*
X016859Y022818D01*
X016925Y022903D01*
X016966Y023003D01*
X016980Y023110D01*
X016966Y023217D01*
X016925Y023317D01*
X016859Y023403D01*
X016774Y023468D01*
X016674Y023510D01*
X016567Y023524D01*
D02*
G37*
G36*
X016011Y023035D02*
X015642D01*
Y022666D01*
X015684Y022672D01*
X015794Y022717D01*
X015888Y022789D01*
X015960Y022883D01*
X016005Y022993D01*
X016011Y023035D01*
D02*
G37*
G36*
X015492D02*
X015123D01*
X015129Y022993D01*
X015174Y022883D01*
X015246Y022789D01*
X015340Y022717D01*
X015449Y022672D01*
X015492Y022666D01*
Y023035D01*
D02*
G37*
G36*
X015551Y022315D02*
X015482Y022302D01*
X015423Y022262D01*
X015383Y022203D01*
X015331Y022197D01*
X015312Y022210D01*
X015243Y022224D01*
X015173Y022210D01*
X015114Y022171D01*
X015075Y022112D01*
X015061Y022043D01*
X015075Y021973D01*
X015114Y021914D01*
X015173Y021875D01*
X015241Y021861D01*
Y019143D01*
X015248Y019103D01*
X015270Y019070D01*
X015617Y018724D01*
X015611Y018693D01*
X015625Y018623D01*
X015664Y018564D01*
X015669Y018561D01*
X015651Y018513D01*
X015567Y018524D01*
X015460Y018510D01*
X015360Y018468D01*
X015275Y018403D01*
X015209Y018317D01*
X015167Y018217D01*
X015153Y018110D01*
X015167Y018003D01*
X015209Y017903D01*
X015275Y017818D01*
X015360Y017752D01*
X015460Y017711D01*
X015567Y017697D01*
X015674Y017711D01*
X015774Y017752D01*
X015859Y017818D01*
X015873Y017835D01*
X015920Y017819D01*
Y017663D01*
X015928Y017624D01*
X015950Y017591D01*
X015967Y017574D01*
X015961Y017543D01*
X015975Y017473D01*
X016014Y017414D01*
X016073Y017375D01*
X016143Y017361D01*
X016212Y017375D01*
X016271Y017414D01*
X016310Y017473D01*
X016324Y017543D01*
X016310Y017612D01*
X016271Y017671D01*
X016212Y017710D01*
X016143Y017724D01*
X016124Y017739D01*
Y017978D01*
X016174Y017988D01*
X016209Y017903D01*
X016275Y017818D01*
X016360Y017752D01*
X016460Y017711D01*
X016567Y017697D01*
X016674Y017711D01*
X016774Y017752D01*
X016859Y017818D01*
X016925Y017903D01*
X016966Y018003D01*
X016980Y018110D01*
X016966Y018217D01*
X016925Y018317D01*
X016859Y018403D01*
X016774Y018468D01*
X016674Y018510D01*
X016567Y018524D01*
X016460Y018510D01*
X016360Y018468D01*
X016275Y018403D01*
X016209Y018317D01*
X016174Y018233D01*
X016124Y018242D01*
Y018772D01*
X016116Y018811D01*
X016094Y018844D01*
X015653Y019285D01*
Y021988D01*
X015680Y022005D01*
X015719Y022064D01*
X015733Y022134D01*
X015719Y022203D01*
X015680Y022262D01*
X015621Y022302D01*
X015551Y022315D01*
D02*
G37*
G36*
X011864Y022065D02*
X011078D01*
Y021761D01*
X011495D01*
X011593Y021774D01*
X011684Y021811D01*
X011763Y021872D01*
X011823Y021950D01*
X011861Y022041D01*
X011864Y022065D01*
D02*
G37*
G36*
X011495Y022518D02*
X011078D01*
Y022215D01*
X011864D01*
X011861Y022238D01*
X011823Y022329D01*
X011763Y022407D01*
X011684Y022468D01*
X011593Y022505D01*
X011495Y022518D01*
D02*
G37*
G36*
X010928D02*
X010510D01*
X010412Y022505D01*
X010321Y022468D01*
X010243Y022407D01*
X010182Y022329D01*
X010144Y022238D01*
X010141Y022215D01*
X010928D01*
Y022518D01*
D02*
G37*
G36*
X024138Y024138D02*
X022864D01*
X022875Y024001D01*
X022925Y023794D01*
X023006Y023598D01*
X023117Y023417D01*
X023255Y023255D01*
X023417Y023117D01*
X023598Y023006D01*
X023794Y022925D01*
X024001Y022875D01*
X024138Y022864D01*
Y024138D01*
D02*
G37*
G36*
X013356D02*
X012083D01*
Y022864D01*
X012220Y022875D01*
X012426Y022925D01*
X012623Y023006D01*
X012804Y023117D01*
X012965Y023255D01*
X013103Y023417D01*
X013214Y023598D01*
X013296Y023794D01*
X013345Y024001D01*
X013356Y024138D01*
D02*
G37*
G36*
X021492Y023554D02*
X021449Y023549D01*
X021340Y023503D01*
X021246Y023431D01*
X021174Y023337D01*
X021129Y023228D01*
X021123Y023185D01*
X021492D01*
Y023554D01*
D02*
G37*
G36*
X025561Y024138D02*
X024288D01*
Y022864D01*
X024424Y022875D01*
X024631Y022925D01*
X024827Y023006D01*
X025009Y023117D01*
X025170Y023255D01*
X025308Y023417D01*
X025419Y023598D01*
X025501Y023794D01*
X025550Y024001D01*
X025561Y024138D01*
D02*
G37*
G36*
X011933D02*
X010660D01*
X010670Y024001D01*
X010720Y023794D01*
X010801Y023598D01*
X010912Y023417D01*
X011050Y023255D01*
X011212Y023117D01*
X011393Y023006D01*
X011589Y022925D01*
X011796Y022875D01*
X011933Y022864D01*
Y024138D01*
D02*
G37*
G36*
X018567Y023524D02*
X018460Y023510D01*
X018360Y023468D01*
X018275Y023403D01*
X018209Y023317D01*
X018167Y023217D01*
X018153Y023110D01*
X018167Y023003D01*
X018209Y022903D01*
X018275Y022818D01*
X018360Y022752D01*
X018460Y022711D01*
X018567Y022697D01*
X018674Y022711D01*
X018774Y022752D01*
X018859Y022818D01*
X018925Y022903D01*
X018966Y023003D01*
X018980Y023110D01*
X018966Y023217D01*
X018925Y023317D01*
X018859Y023403D01*
X018774Y023468D01*
X018674Y023510D01*
X018567Y023524D01*
D02*
G37*
G36*
X017567D02*
X017460Y023510D01*
X017360Y023468D01*
X017275Y023403D01*
X017209Y023317D01*
X017167Y023217D01*
X017153Y023110D01*
X017167Y023003D01*
X017209Y022903D01*
X017275Y022818D01*
X017360Y022752D01*
X017460Y022711D01*
X017567Y022697D01*
X017674Y022711D01*
X017774Y022752D01*
X017859Y022818D01*
X017925Y022903D01*
X017966Y023003D01*
X017980Y023110D01*
X017966Y023217D01*
X017925Y023317D01*
X017859Y023403D01*
X017774Y023468D01*
X017674Y023510D01*
X017567Y023524D01*
D02*
G37*
G36*
X020567D02*
X020460Y023510D01*
X020360Y023468D01*
X020275Y023403D01*
X020209Y023317D01*
X020167Y023217D01*
X020153Y023110D01*
X020167Y023003D01*
X020209Y022903D01*
X020275Y022818D01*
X020360Y022752D01*
X020460Y022711D01*
X020567Y022697D01*
X020674Y022711D01*
X020774Y022752D01*
X020859Y022818D01*
X020925Y022903D01*
X020966Y023003D01*
X020980Y023110D01*
X020966Y023217D01*
X020925Y023317D01*
X020859Y023403D01*
X020774Y023468D01*
X020674Y023510D01*
X020567Y023524D01*
D02*
G37*
G36*
X019567D02*
X019460Y023510D01*
X019360Y023468D01*
X019275Y023403D01*
X019209Y023317D01*
X019167Y023217D01*
X019153Y023110D01*
X019167Y023003D01*
X019209Y022903D01*
X019275Y022818D01*
X019360Y022752D01*
X019460Y022711D01*
X019567Y022697D01*
X019674Y022711D01*
X019774Y022752D01*
X019859Y022818D01*
X019925Y022903D01*
X019966Y023003D01*
X019980Y023110D01*
X019966Y023217D01*
X019925Y023317D01*
X019859Y023403D01*
X019774Y023468D01*
X019674Y023510D01*
X019567Y023524D01*
D02*
G37*
%LPD*%
D31*
X020843Y020693D02*
X021393Y020143D01*
X021243Y018620D02*
Y018993D01*
X023943Y020809D02*
X024591Y021457D01*
X023943Y020193D02*
Y020809D01*
X024078Y019958D02*
X025093Y018943D01*
X023943Y020193D02*
X024078Y020058D01*
Y019958D02*
Y020058D01*
X025093Y018543D02*
Y018943D01*
X021393Y019143D02*
Y020143D01*
X021243Y018993D02*
X021393Y019143D01*
X021093Y018620D02*
X021243D01*
X023563Y016173D02*
X023843D01*
X023853Y016183D01*
X022243Y013893D02*
Y014393D01*
X023853Y016003D01*
Y016183D01*
D32*
X024693Y017193D02*
X024893Y017393D01*
X025543D01*
X024293Y016843D02*
Y016993D01*
Y016843D02*
X024743Y016393D01*
X025543D01*
X021567Y013817D02*
Y018110D01*
X021543Y013793D02*
X021567Y013817D01*
X020567Y013768D02*
Y018110D01*
Y013768D02*
X020593Y013743D01*
X018917Y018793D02*
X019117Y018993D01*
X018193Y018793D02*
X018917D01*
X018093Y012993D02*
Y015393D01*
X017743Y012993D02*
Y015093D01*
X016732Y012832D02*
Y016332D01*
X018043Y017643D01*
Y018543D01*
X017893Y018693D02*
X018043Y018543D01*
X018195Y020590D02*
X018545D01*
X019543Y019593D01*
Y019043D02*
Y019593D01*
Y019043D02*
X020043Y018543D01*
Y017293D02*
Y018543D01*
X013976Y021126D02*
X014110Y020993D01*
X014293D01*
X014643Y020643D01*
Y019693D02*
Y020643D01*
X015243Y022043D02*
X015343Y021943D01*
X022843Y019443D02*
Y021893D01*
X022743Y019343D02*
X022843Y019443D01*
X022643Y019343D02*
X022743D01*
X018143Y021393D02*
X018193D01*
X017693Y020943D02*
X018143Y021393D01*
X017893Y018693D02*
Y019643D01*
X017243Y015143D02*
X017443Y014943D01*
Y013943D02*
Y014943D01*
X015551Y019243D02*
Y022134D01*
X015343Y019143D02*
X015793Y018693D01*
X015343Y019143D02*
Y021943D01*
X016022Y017663D02*
Y018772D01*
Y017663D02*
X016143Y017543D01*
X015551Y019243D02*
X016022Y018772D01*
X013673Y020533D02*
X013809Y020669D01*
X014166D01*
X016493Y014663D02*
Y015903D01*
X014853Y017543D02*
X016493Y015903D01*
X018567Y018110D02*
X019567D01*
X024503Y014894D02*
Y014913D01*
Y014894D02*
X024712Y014684D01*
X024731D01*
X024763Y014653D01*
Y013973D02*
Y014653D01*
D36*
X013960Y023110D02*
X014567D01*
X012293Y021443D02*
X013960Y023110D01*
X011343Y017070D02*
X012293Y018020D01*
Y021443D01*
D39*
X022343Y013768D02*
D03*
D42*
X024213Y024213D02*
D03*
X012008D02*
D03*
X024213Y012008D02*
D03*
X012008D02*
D03*
D43*
X011363Y015583D02*
D03*
Y016960D02*
D03*
D44*
X014567Y018110D02*
D03*
Y023110D02*
D03*
D45*
X015567Y018110D02*
D03*
X016567D02*
D03*
X017567D02*
D03*
X018567D02*
D03*
X019567D02*
D03*
X020567D02*
D03*
X021567D02*
D03*
X015567Y023110D02*
D03*
X016567D02*
D03*
X017567D02*
D03*
X018567D02*
D03*
X019567D02*
D03*
X020567D02*
D03*
X021567D02*
D03*
D46*
X023613Y021683D02*
D03*
X024613D02*
D03*
X025613D02*
D03*
X022047Y025000D02*
D03*
X021047D02*
D03*
X020047D02*
D03*
X015035D02*
D03*
X016035D02*
D03*
X017035D02*
D03*
X018035D02*
D03*
D47*
X013143Y018553D02*
D03*
D48*
Y019553D02*
D03*
Y020553D02*
D03*
D49*
X010491Y020073D02*
D03*
Y020703D02*
D03*
X011514Y021017D02*
D03*
Y020388D02*
D03*
X010491Y021332D02*
D03*
D50*
X011003Y022140D02*
D03*
Y019266D02*
D03*
D51*
X021163Y020333D02*
D03*
X014420Y022165D02*
D03*
X024693Y017193D02*
D03*
X024293Y016993D02*
D03*
X024693Y018493D02*
D03*
X024393Y018343D02*
D03*
X021543Y013793D02*
D03*
X020593Y013743D02*
D03*
X019117Y018993D02*
D03*
X018193Y018793D02*
D03*
X018093Y015393D02*
D03*
Y012993D02*
D03*
X025243Y019743D02*
D03*
X024676Y018909D02*
D03*
X024420Y018865D02*
D03*
X017743Y015093D02*
D03*
Y012993D02*
D03*
X016732Y012832D02*
D03*
X018195Y020590D02*
D03*
X020043Y017293D02*
D03*
X014166Y020669D02*
D03*
X013976Y021126D02*
D03*
X014643Y019693D02*
D03*
X015043Y019293D02*
D03*
X015551Y022134D02*
D03*
X015243Y022043D02*
D03*
X020893Y019243D02*
D03*
X023278Y018128D02*
D03*
X022843Y021893D02*
D03*
X021093Y018620D02*
D03*
X022643Y019343D02*
D03*
X021843Y022143D02*
D03*
X023943Y020193D02*
D03*
X015893Y021093D02*
D03*
Y020693D02*
D03*
Y020243D02*
D03*
X015093Y021093D02*
D03*
Y020693D02*
D03*
Y020193D02*
D03*
X018193Y021393D02*
D03*
X017693Y020943D02*
D03*
X017893Y019643D02*
D03*
X022243Y013893D02*
D03*
Y013643D02*
D03*
X022493Y013793D02*
D03*
X024543Y010293D02*
D03*
X022244Y015894D02*
D03*
X017243Y015143D02*
D03*
X017443Y013943D02*
D03*
X015793Y018693D02*
D03*
X016143Y017543D02*
D03*
X013673Y020533D02*
D03*
X016493Y014663D02*
D03*
X014853Y017543D02*
D03*
X011710Y018355D02*
D03*
X023563Y016173D02*
D03*
X023853Y016183D02*
D03*
X024803Y013483D02*
D03*
X025913Y011743D02*
D03*
X023213Y013463D02*
D03*
X023553D02*
D03*
X024803Y014923D02*
D03*
X024503Y014913D02*
D03*
X024763Y013973D02*
D03*
X025513Y014793D02*
D03*
Y014553D02*
D03*
Y014323D02*
D03*
Y014093D02*
D03*
X025533Y013883D02*
D03*
X023733Y015003D02*
D03*
X023963Y015013D02*
D03*
X023503Y015043D02*
D03*
D52*
X025543Y015393D02*
D03*
Y016393D02*
D03*
Y017393D02*
D03*
Y018393D02*
D03*
M02*
