Added Component: Designator=J9(SIP3)
Add component. Clean all parameters for all variants
Add component (AddParameter): Name = "Supplier 1"; Value = "Newark"; VariantName = "[No Variations]"
Add component (AddParameter): Name = "Supplier Part Number 1"; Value = "67R8275"; VariantName = "[No Variations]"
Added Member To Class: ClassName=Main Member=Component J9 goldpin 3x2.54
